Library/Bee/artifacts/mvdfrm/Unity.Services.Core.Internal.ref.dll_4233865F64766B29.mvfrm
Library/Bee/artifacts/mvdfrm/Unity.Services.Core.ref.dll_20255DC58CC224E8.mvfrm
Library/Bee/artifacts/mvdfrm/UnityEngine.UI.ref.dll_6C1073D56147DE5F.mvfrm
Library/Bee/artifacts/mvdfrm/Unity.VisualScripting.Antlr3.Runtime.dll_EFAC91841C48604F.mvfrm
Library/Bee/artifacts/mvdfrm/UnityEngine.AIModule.dll_4F2ADDFF2A8BD4D5.mvfrm
Library/Bee/artifacts/mvdfrm/UnityEngine.AccessibilityModule.dll_3BE2E3B48E9D8795.mvfrm
Library/Bee/artifacts/mvdfrm/UnityEngine.AndroidJNIModule.dll_5221DEDD45880513.mvfrm
Library/Bee/artifacts/mvdfrm/UnityEngine.AnimationModule.dll_CF54ECCB944AF8FB.mvfrm
Library/Bee/artifacts/mvdfrm/UnityEngine.AssetBundleModule.dll_6966CB1D5842CD89.mvfrm
Library/Bee/artifacts/mvdfrm/UnityEngine.AudioModule.dll_5B300E43D551232D.mvfrm
Library/Bee/artifacts/mvdfrm/UnityEngine.ClothModule.dll_C2186B3EAF6E0211.mvfrm
Library/Bee/artifacts/mvdfrm/UnityEngine.CoreModule.dll_72D3A04B44D2BBCC.mvfrm
Library/Bee/artifacts/mvdfrm/UnityEngine.CrashReportingModule.dll_A1780198BD5AA6E4.mvfrm
Library/Bee/artifacts/mvdfrm/UnityEngine.DSPGraphModule.dll_3DF891213F986E0A.mvfrm
Library/Bee/artifacts/mvdfrm/UnityEngine.DirectorModule.dll_38A72FB7CD379CE9.mvfrm
Library/Bee/artifacts/mvdfrm/UnityEngine.GIModule.dll_E767270CC63ABCEF.mvfrm
Library/Bee/artifacts/mvdfrm/UnityEngine.GameCenterModule.dll_7C6F28F80BC8F604.mvfrm
Library/Bee/artifacts/mvdfrm/UnityEngine.GridModule.dll_5044BC395D2751C3.mvfrm
Library/Bee/artifacts/mvdfrm/UnityEngine.HotReloadModule.dll_509DAAD16F7E147D.mvfrm
Library/Bee/artifacts/mvdfrm/UnityEngine.IMGUIModule.dll_938FADAA9B82B70E.mvfrm
Library/Bee/artifacts/mvdfrm/UnityEngine.ImageConversionModule.dll_755328556C07AB68.mvfrm
Library/Bee/artifacts/mvdfrm/UnityEngine.InputLegacyModule.dll_FAABE63BF034837A.mvfrm
Library/Bee/artifacts/mvdfrm/UnityEngine.InputModule.dll_C1A5D5F44B8947D1.mvfrm
Library/Bee/artifacts/mvdfrm/UnityEngine.JSONSerializeModule.dll_9BFA6CF08DD8E81F.mvfrm
Library/Bee/artifacts/mvdfrm/UnityEngine.LocalizationModule.dll_15D9B4680B051596.mvfrm
Library/Bee/artifacts/mvdfrm/UnityEngine.ParticleSystemModule.dll_F48A4AE52B6C3272.mvfrm
Library/Bee/artifacts/mvdfrm/UnityEngine.PerformanceReportingModule.dll_A1AF97D12E811C8B.mvfrm
Library/Bee/artifacts/mvdfrm/UnityEngine.Physics2DModule.dll_1BFADCBC3547F090.mvfrm
Library/Bee/artifacts/mvdfrm/UnityEngine.PhysicsModule.dll_B52C1277C0C5A59E.mvfrm
Library/Bee/artifacts/mvdfrm/UnityEngine.ProfilerModule.dll_6AED68EE669123F6.mvfrm
Library/Bee/artifacts/mvdfrm/UnityEngine.RuntimeInitializeOnLoadManagerInitializerModule.dll_000F00EA35168159.mvfrm
Library/Bee/artifacts/mvdfrm/UnityEngine.ScreenCaptureModule.dll_B5E21A75A2451481.mvfrm
Library/Bee/artifacts/mvdfrm/UnityEngine.SharedInternalsModule.dll_F964672AE335A6B8.mvfrm
Library/Bee/artifacts/mvdfrm/UnityEngine.SpriteMaskModule.dll_659B9B882D388B7E.mvfrm
Library/Bee/artifacts/mvdfrm/UnityEngine.SpriteShapeModule.dll_82C7F8780DE50593.mvfrm
Library/Bee/artifacts/mvdfrm/UnityEngine.StreamingModule.dll_83E9DA1BE3D2B039.mvfrm
Library/Bee/artifacts/mvdfrm/UnityEngine.SubstanceModule.dll_6094EE652F25AE47.mvfrm
Library/Bee/artifacts/mvdfrm/UnityEngine.SubsystemsModule.dll_D04901E9FB807391.mvfrm
Library/Bee/artifacts/mvdfrm/UnityEngine.TLSModule.dll_98EB4A0568E85EF2.mvfrm
Library/Bee/artifacts/mvdfrm/UnityEngine.TerrainModule.dll_CF728DE69683EE8C.mvfrm
Library/Bee/artifacts/mvdfrm/UnityEngine.TerrainPhysicsModule.dll_F504F3B844AF2CFF.mvfrm
Library/Bee/artifacts/mvdfrm/UnityEngine.TextCoreFontEngineModule.dll_9B486DD641FED7CA.mvfrm
Library/Bee/artifacts/mvdfrm/UnityEngine.TextCoreTextEngineModule.dll_E330A447D18290E8.mvfrm
Library/Bee/artifacts/mvdfrm/UnityEngine.TextRenderingModule.dll_DF218C80597C9476.mvfrm
Library/Bee/artifacts/mvdfrm/UnityEngine.TilemapModule.dll_6E6EF567AE40CF95.mvfrm
Library/Bee/artifacts/mvdfrm/UnityEngine.UIElementsModule.dll_D4876351FEACAF88.mvfrm
Library/Bee/artifacts/mvdfrm/UnityEngine.UIElementsNativeModule.dll_26FD57858FDEFEDF.mvfrm
Library/Bee/artifacts/mvdfrm/UnityEngine.UIModule.dll_4A9E7C2C86D2DA81.mvfrm
Library/Bee/artifacts/mvdfrm/UnityEngine.UNETModule.dll_0579E83491E1B145.mvfrm
Library/Bee/artifacts/mvdfrm/UnityEngine.UmbraModule.dll_D604BA5C6277CEA0.mvfrm
Library/Bee/artifacts/mvdfrm/UnityEngine.UnityAnalyticsCommonModule.dll_3CEE55154869BAE9.mvfrm
Library/Bee/artifacts/mvdfrm/UnityEngine.UnityAnalyticsModule.dll_1429BBAED793846E.mvfrm
Library/Bee/artifacts/mvdfrm/UnityEngine.UnityConnectModule.dll_454FF90EBC895082.mvfrm
Library/Bee/artifacts/mvdfrm/UnityEngine.UnityCurlModule.dll_02718DFD045EEAE8.mvfrm
Library/Bee/artifacts/mvdfrm/UnityEngine.UnityTestProtocolModule.dll_B03255C05F507356.mvfrm
Library/Bee/artifacts/mvdfrm/UnityEngine.UnityWebRequestAssetBundleModule.dll_0210EB5FF91249BF.mvfrm
Library/Bee/artifacts/mvdfrm/UnityEngine.UnityWebRequestAudioModule.dll_19ABEBAFB4EBE723.mvfrm
Library/Bee/artifacts/mvdfrm/UnityEngine.UnityWebRequestModule.dll_86F22FFF76FC45E7.mvfrm
Library/Bee/artifacts/mvdfrm/UnityEngine.UnityWebRequestTextureModule.dll_FA363E49F8FD0F58.mvfrm
Library/Bee/artifacts/mvdfrm/UnityEngine.UnityWebRequestWWWModule.dll_ADF2E9A3C1424D54.mvfrm
Library/Bee/artifacts/mvdfrm/UnityEngine.VFXModule.dll_19C9E2743F55C85F.mvfrm
Library/Bee/artifacts/mvdfrm/UnityEngine.VRModule.dll_9D70A2B2288D5FF9.mvfrm
Library/Bee/artifacts/mvdfrm/UnityEngine.VehiclesModule.dll_B06A293747616C84.mvfrm
Library/Bee/artifacts/mvdfrm/UnityEngine.VideoModule.dll_803992AE97E33ED2.mvfrm
Library/Bee/artifacts/mvdfrm/UnityEngine.WebGLModule.dll_FA9C8352C72734F0.mvfrm
Library/Bee/artifacts/mvdfrm/UnityEngine.WindModule.dll_E9227B73D6093A35.mvfrm
Library/Bee/artifacts/mvdfrm/UnityEngine.XRModule.dll_D02F65B6B1C7AD57.mvfrm
Library/Bee/artifacts/mvdfrm/UnityEngine.dll_AA9CA639236CA409.mvfrm