Library/Bee/artifacts/mvdfrm/Unity.Services.Core.Internal.ref.dll_298ABF7908834CE5.mvfrm
Library/Bee/artifacts/mvdfrm/Unity.Services.Core.ref.dll_253BD6218BD82EEC.mvfrm
Library/Bee/artifacts/mvdfrm/UnityEngine.UI.ref.dll_F37DC0DEF554539B.mvfrm
Library/Bee/artifacts/mvdfrm/Unity.VisualScripting.Antlr3.Runtime.dll_EFAC91841C48604F.mvfrm
Library/Bee/artifacts/mvdfrm/UnityEngine.AIModule.dll_22EDBB36B8B42AC2.mvfrm
Library/Bee/artifacts/mvdfrm/UnityEngine.AccessibilityModule.dll_3DE2A4926BBCB038.mvfrm
Library/Bee/artifacts/mvdfrm/UnityEngine.AndroidJNIModule.dll_10F7EA0CB4B65180.mvfrm
Library/Bee/artifacts/mvdfrm/UnityEngine.AnimationModule.dll_CD0B420A6886C0DE.mvfrm
Library/Bee/artifacts/mvdfrm/UnityEngine.AssetBundleModule.dll_44E409D39CC4BFCC.mvfrm
Library/Bee/artifacts/mvdfrm/UnityEngine.AudioModule.dll_74D090C0B68FBA50.mvfrm
Library/Bee/artifacts/mvdfrm/UnityEngine.ClothModule.dll_DBB8EDBB90AC9934.mvfrm
Library/Bee/artifacts/mvdfrm/UnityEngine.ClusterInputModule.dll_01F002895331EEAA.mvfrm
Library/Bee/artifacts/mvdfrm/UnityEngine.ClusterRendererModule.dll_263EF7A2BA8FDE77.mvfrm
Library/Bee/artifacts/mvdfrm/UnityEngine.CoreModule.dll_5F9DADFF68BDC159.mvfrm
Library/Bee/artifacts/mvdfrm/UnityEngine.CrashReportingModule.dll_FF47966AA8402691.mvfrm
Library/Bee/artifacts/mvdfrm/UnityEngine.DSPGraphModule.dll_4B3736B9B0CFEED7.mvfrm
Library/Bee/artifacts/mvdfrm/UnityEngine.DirectorModule.dll_45E5D5503E6F1DB6.mvfrm
Library/Bee/artifacts/mvdfrm/UnityEngine.GIModule.dll_BB2A0444546312DC.mvfrm
Library/Bee/artifacts/mvdfrm/UnityEngine.GameCenterModule.dll_3B4534277AF74271.mvfrm
Library/Bee/artifacts/mvdfrm/UnityEngine.GridModule.dll_3D0EC9ED81125750.mvfrm
Library/Bee/artifacts/mvdfrm/UnityEngine.HotReloadModule.dll_4E54001043B9DC60.mvfrm
Library/Bee/artifacts/mvdfrm/UnityEngine.IMGUIModule.dll_AD3030277CC14E31.mvfrm
Library/Bee/artifacts/mvdfrm/UnityEngine.ImageConversionModule.dll_9230F5533CB4966B.mvfrm
Library/Bee/artifacts/mvdfrm/UnityEngine.InputLegacyModule.dll_D62924F234B675BD.mvfrm
Library/Bee/artifacts/mvdfrm/UnityEngine.InputModule.dll_DB4658712CC7DEF4.mvfrm
Library/Bee/artifacts/mvdfrm/UnityEngine.JSONSerializeModule.dll_9DFA2DCE6AF810C2.mvfrm
Library/Bee/artifacts/mvdfrm/UnityEngine.LocalizationModule.dll_403CCCDBEAADE1A3.mvfrm
Library/Bee/artifacts/mvdfrm/UnityEngine.ParticleSystemModule.dll_5259DFB71651B21F.mvfrm
Library/Bee/artifacts/mvdfrm/UnityEngine.PerformanceReportingModule.dll_A3F52D02C64AEF18.mvfrm
Library/Bee/artifacts/mvdfrm/UnityEngine.Physics2DModule.dll_19B131FB0983B873.mvfrm
Library/Bee/artifacts/mvdfrm/UnityEngine.PhysicsModule.dll_1DC4F2B6AEA8CF21.mvfrm
Library/Bee/artifacts/mvdfrm/UnityEngine.ProfilerModule.dll_782C0E86D7C8A4C3.mvfrm
Library/Bee/artifacts/mvdfrm/UnityEngine.RuntimeInitializeOnLoadManagerInitializerModule.dll_B551D7F2B38A8F3C.mvfrm
Library/Bee/artifacts/mvdfrm/UnityEngine.ScreenCaptureModule.dll_B7E1DB537F643D24.mvfrm
Library/Bee/artifacts/mvdfrm/UnityEngine.SharedInternalsModule.dll_16423428B3E291BB.mvfrm
Library/Bee/artifacts/mvdfrm/UnityEngine.SpriteMaskModule.dll_2471A6B79C66D7EB.mvfrm
Library/Bee/artifacts/mvdfrm/UnityEngine.SpriteShapeModule.dll_5E45372E5266F7D6.mvfrm
Library/Bee/artifacts/mvdfrm/UnityEngine.StreamingModule.dll_81A02F5AB80E781C.mvfrm
Library/Bee/artifacts/mvdfrm/UnityEngine.SubstanceModule.dll_5E4B43A40361762A.mvfrm
Library/Bee/artifacts/mvdfrm/UnityEngine.SubsystemsModule.dll_8F1F0D196AAEBFFE.mvfrm
Library/Bee/artifacts/mvdfrm/UnityEngine.TLSModule.dll_80B2F24B6F2CEFB5.mvfrm
Library/Bee/artifacts/mvdfrm/UnityEngine.TerrainModule.dll_380B6E258467180F.mvfrm
Library/Bee/artifacts/mvdfrm/UnityEngine.TerrainPhysicsModule.dll_52D4888A2F94ACAC.mvfrm
Library/Bee/artifacts/mvdfrm/UnityEngine.TextCoreFontEngineModule.dll_3FD4F0F182AE5AB7.mvfrm
Library/Bee/artifacts/mvdfrm/UnityEngine.TextCoreTextEngineModule.dll_87BD2763123213D5.mvfrm
Library/Bee/artifacts/mvdfrm/UnityEngine.TextRenderingModule.dll_E1214D5E369BBD19.mvfrm
Library/Bee/artifacts/mvdfrm/UnityEngine.TilemapModule.dll_D707D5A69C23F918.mvfrm
Library/Bee/artifacts/mvdfrm/UnityEngine.UIElementsModule.dll_935D6E816DDAFBF5.mvfrm
Library/Bee/artifacts/mvdfrm/UnityEngine.UIElementsNativeModule.dll_751838D899D1E62C.mvfrm
Library/Bee/artifacts/mvdfrm/UnityEngine.UIModule.dll_1E61596414FB306E.mvfrm
Library/Bee/artifacts/mvdfrm/UnityEngine.UNETModule.dll_F243F5E8B5CCB6D2.mvfrm
Library/Bee/artifacts/mvdfrm/UnityEngine.UmbraModule.dll_EFA53CD943B665C3.mvfrm
Library/Bee/artifacts/mvdfrm/UnityEngine.UnityAnalyticsCommonModule.dll_3F33EA46E0338D76.mvfrm
Library/Bee/artifacts/mvdfrm/UnityEngine.UnityAnalyticsModule.dll_71F95080C279041B.mvfrm
Library/Bee/artifacts/mvdfrm/UnityEngine.UnityConnectModule.dll_6FB311829C321C8F.mvfrm
Library/Bee/artifacts/mvdfrm/UnityEngine.UnityCurlModule.dll_0027E33BD89AB2CB.mvfrm
Library/Bee/artifacts/mvdfrm/UnityEngine.UnityTestProtocolModule.dll_6C25246FAB452CB9.mvfrm
Library/Bee/artifacts/mvdfrm/UnityEngine.UnityWebRequestAssetBundleModule.dll_2508FA89F95E432C.mvfrm
Library/Bee/artifacts/mvdfrm/UnityEngine.UnityWebRequestAudioModule.dll_1BF180E14CB5B9B0.mvfrm
Library/Bee/artifacts/mvdfrm/UnityEngine.UnityWebRequestModule.dll_A3CFFCFD47A930EA.mvfrm
Library/Bee/artifacts/mvdfrm/UnityEngine.UnityWebRequestTextureModule.dll_B7BF65C5CFBD6585.mvfrm
Library/Bee/artifacts/mvdfrm/UnityEngine.UnityWebRequestWWWModule.dll_527F6CBF01F1D041.mvfrm
Library/Bee/artifacts/mvdfrm/UnityEngine.VFXModule.dll_01918ABA459A5922.mvfrm
Library/Bee/artifacts/mvdfrm/UnityEngine.VRModule.dll_71337FE9B6B5B5E6.mvfrm
Library/Bee/artifacts/mvdfrm/UnityEngine.VehiclesModule.dll_BDA8CECFB898ED51.mvfrm
Library/Bee/artifacts/mvdfrm/UnityEngine.VideoModule.dll_99DA152B7921D5F5.mvfrm
Library/Bee/artifacts/mvdfrm/UnityEngine.VirtualTexturingModule.dll_99A4ED47728066B7.mvfrm
Library/Bee/artifacts/mvdfrm/UnityEngine.WindModule.dll_D5EC8927F9F43FC2.mvfrm
Library/Bee/artifacts/mvdfrm/UnityEngine.XRModule.dll_A3F242EE3FF00344.mvfrm
Library/Bee/artifacts/mvdfrm/UnityEngine.dll_FB6BF36E5BA0C8EC.mvfrm