Library/Bee/artifacts/mvdfrm/Unity.Services.Core.ref.dll_B122F1A1160C9981.mvfrm
Library/Bee/artifacts/mvdfrm/UnityEditor.UI.ref.dll_452FB8EBD860BCAB.mvfrm
Library/Bee/artifacts/mvdfrm/UnityEngine.UI.ref.dll_01958F46DE82E516.mvfrm
Library/Bee/artifacts/mvdfrm/Unity.Plastic.Antlr3.Runtime.dll_C3FFE9537486E2EF.mvfrm
Library/Bee/artifacts/mvdfrm/Unity.Plastic.Newtonsoft.Json.dll_F4F9D567F9F8C7D6.mvfrm
Library/Bee/artifacts/mvdfrm/Unity.VisualScripting.IonicZip.dll_9721A616664C180C.mvfrm
Library/Bee/artifacts/mvdfrm/Unity.VisualScripting.YamlDotNet.dll_3E3F6AA2EB7F5030.mvfrm
Library/Bee/artifacts/mvdfrm/Unity.VisualScripting.TextureAssets.dll_D55D93F6AC4CAE28.mvfrm
Library/Bee/artifacts/mvdfrm/Unity.VisualScripting.Antlr3.Runtime.dll_EFAC91841C48604F.mvfrm
Library/Bee/artifacts/mvdfrm/UnityEditor.Graphs.dll_96846F9ED54D1B73.mvfrm
Library/Bee/artifacts/mvdfrm/UnityEditor.CoreModule.dll_0005587E6B421241.mvfrm
Library/Bee/artifacts/mvdfrm/UnityEditor.DeviceSimulatorModule.dll_3DFC87C4415E3650.mvfrm
Library/Bee/artifacts/mvdfrm/UnityEditor.DiagnosticsModule.dll_D17F51EE2720549E.mvfrm
Library/Bee/artifacts/mvdfrm/UnityEditor.GraphViewModule.dll_966D6164190610B5.mvfrm
Library/Bee/artifacts/mvdfrm/UnityEditor.PackageManagerUIModule.dll_E47E82F8E663885D.mvfrm
Library/Bee/artifacts/mvdfrm/UnityEditor.QuickSearchModule.dll_5C8ED2FB7FF750F7.mvfrm
Library/Bee/artifacts/mvdfrm/UnityEditor.SceneTemplateModule.dll_5F05CB2421E76458.mvfrm
Library/Bee/artifacts/mvdfrm/UnityEditor.TextCoreFontEngineModule.dll_7693359DDA33869F.mvfrm
Library/Bee/artifacts/mvdfrm/UnityEditor.TextCoreTextEngineModule.dll_BE7B6C0F69B73FBD.mvfrm
Library/Bee/artifacts/mvdfrm/UnityEditor.UIBuilderModule.dll_EAF60E808BBE89E9.mvfrm
Library/Bee/artifacts/mvdfrm/UnityEditor.UIElementsModule.dll_3D4F4501EA6C33DD.mvfrm
Library/Bee/artifacts/mvdfrm/UnityEditor.UIElementsSamplesModule.dll_68817134BB033A60.mvfrm
Library/Bee/artifacts/mvdfrm/UnityEditor.UIServiceModule.dll_23E81FE374F5DA03.mvfrm
Library/Bee/artifacts/mvdfrm/UnityEditor.UnityConnectModule.dll_937C8F800236E177.mvfrm
Library/Bee/artifacts/mvdfrm/UnityEditor.dll_E1FF86B1182CA384.mvfrm
Library/Bee/artifacts/mvdfrm/UnityEngine.AIModule.dll_A5C2738EEEC8A275.mvfrm
Library/Bee/artifacts/mvdfrm/UnityEngine.AccessibilityModule.dll_91AB36BB225D8BF5.mvfrm
Library/Bee/artifacts/mvdfrm/UnityEngine.AndroidJNIModule.dll_BB982DD5338BA2B3.mvfrm
Library/Bee/artifacts/mvdfrm/UnityEngine.AnimationModule.dll_64F2DD8CF362E55B.mvfrm
Library/Bee/artifacts/mvdfrm/UnityEngine.AssetBundleModule.dll_A07805ECE25E05E9.mvfrm
Library/Bee/artifacts/mvdfrm/UnityEngine.AudioModule.dll_EA7E648D2B86F78D.mvfrm
Library/Bee/artifacts/mvdfrm/UnityEngine.ClothModule.dll_5166C18805A3D671.mvfrm
Library/Bee/artifacts/mvdfrm/UnityEngine.ClusterInputModule.dll_13190495B3BEB43D.mvfrm
Library/Bee/artifacts/mvdfrm/UnityEngine.ClusterRendererModule.dll_43A94A35B11943D4.mvfrm
Library/Bee/artifacts/mvdfrm/UnityEngine.CoreModule.dll_23262BD113477D6C.mvfrm
Library/Bee/artifacts/mvdfrm/UnityEngine.CrashReportingModule.dll_6B6FAE4EB848AC84.mvfrm
Library/Bee/artifacts/mvdfrm/UnityEngine.DSPGraphModule.dll_6AA19339B42097AA.mvfrm
Library/Bee/artifacts/mvdfrm/UnityEngine.DirectorModule.dll_655031D041BFC689.mvfrm
Library/Bee/artifacts/mvdfrm/UnityEngine.GIModule.dll_3DFEBC9C8A778A8F.mvfrm
Library/Bee/artifacts/mvdfrm/UnityEngine.GameCenterModule.dll_E5E577EFF9CC93A4.mvfrm
Library/Bee/artifacts/mvdfrm/UnityEngine.GridModule.dll_009747BF2B9C1363.mvfrm
Library/Bee/artifacts/mvdfrm/UnityEngine.HotReloadModule.dll_E63B9B92CE9600DD.mvfrm
Library/Bee/artifacts/mvdfrm/UnityEngine.IMGUIModule.dll_22DE03F3F1B88B6E.mvfrm
Library/Bee/artifacts/mvdfrm/UnityEngine.ImageConversionModule.dll_AF9B47E6333DFBC8.mvfrm
Library/Bee/artifacts/mvdfrm/UnityEngine.InputLegacyModule.dll_31BD210B7A4FBBDA.mvfrm
Library/Bee/artifacts/mvdfrm/UnityEngine.InputModule.dll_50F42C3DA1BF1C31.mvfrm
Library/Bee/artifacts/mvdfrm/UnityEngine.JSONSerializeModule.dll_F1C2BFF72198EC7F.mvfrm
Library/Bee/artifacts/mvdfrm/UnityEngine.LocalizationModule.dll_5165CEE84B3AA736.mvfrm
Library/Bee/artifacts/mvdfrm/UnityEngine.ParticleSystemModule.dll_BE81F79B265A3812.mvfrm
Library/Bee/artifacts/mvdfrm/UnityEngine.PerformanceReportingModule.dll_94F53FC070DF7E2B.mvfrm
Library/Bee/artifacts/mvdfrm/UnityEngine.Physics2DModule.dll_B198CD7D945FDCF0.mvfrm
Library/Bee/artifacts/mvdfrm/UnityEngine.PhysicsModule.dll_8CFA83EB0E4BC5FE.mvfrm
Library/Bee/artifacts/mvdfrm/UnityEngine.ProfilerModule.dll_97966B06DB194D96.mvfrm
Library/Bee/artifacts/mvdfrm/UnityEngine.RuntimeInitializeOnLoadManagerInitializerModule.dll_B4E24680C1172DB9.mvfrm
Library/Bee/artifacts/mvdfrm/UnityEngine.ScreenCaptureModule.dll_0BAA6D7C360518E1.mvfrm
Library/Bee/artifacts/mvdfrm/UnityEngine.SharedInternalsModule.dll_33AC86BBAA6BF718.mvfrm
Library/Bee/artifacts/mvdfrm/UnityEngine.SpriteMaskModule.dll_CF11EA801B3C291E.mvfrm
Library/Bee/artifacts/mvdfrm/UnityEngine.SpriteShapeModule.dll_B9D9334798003DF3.mvfrm
Library/Bee/artifacts/mvdfrm/UnityEngine.StreamingModule.dll_1987CADD42EA9C99.mvfrm
Library/Bee/artifacts/mvdfrm/UnityEngine.SubstanceModule.dll_F632DF268E3D9AA7.mvfrm
Library/Bee/artifacts/mvdfrm/UnityEngine.SubsystemsModule.dll_39BF50E1E9841131.mvfrm
Library/Bee/artifacts/mvdfrm/UnityEngine.TLSModule.dll_AC81A89CE8DF6752.mvfrm
Library/Bee/artifacts/mvdfrm/UnityEngine.TerrainModule.dll_A740FF59E40A0EEC.mvfrm
Library/Bee/artifacts/mvdfrm/UnityEngine.TerrainPhysicsModule.dll_BEFCA06E3F9D329F.mvfrm
Library/Bee/artifacts/mvdfrm/UnityEngine.TextCoreFontEngineModule.dll_F4F2B0F0ED31456A.mvfrm
Library/Bee/artifacts/mvdfrm/UnityEngine.TextCoreTextEngineModule.dll_3CDAE7627CB4FE88.mvfrm
Library/Bee/artifacts/mvdfrm/UnityEngine.TextRenderingModule.dll_34E9DF86ED3C98D6.mvfrm
Library/Bee/artifacts/mvdfrm/UnityEngine.TilemapModule.dll_463D66DAFBC6EFF5.mvfrm
Library/Bee/artifacts/mvdfrm/UnityEngine.UIElementsModule.dll_3DFDB249ECB04D28.mvfrm
Library/Bee/artifacts/mvdfrm/UnityEngine.UIElementsNativeModule.dll_2EF8378E57DBF87F.mvfrm
Library/Bee/artifacts/mvdfrm/UnityEngine.UIModule.dll_A13611BC4B0FA821.mvfrm
Library/Bee/artifacts/mvdfrm/UnityEngine.UNETModule.dll_B5CC73BA605672E5.mvfrm
Library/Bee/artifacts/mvdfrm/UnityEngine.UmbraModule.dll_655310A5B8ADA300.mvfrm
Library/Bee/artifacts/mvdfrm/UnityEngine.UnityAnalyticsCommonModule.dll_3033FD048AC81C89.mvfrm
Library/Bee/artifacts/mvdfrm/UnityEngine.UnityAnalyticsModule.dll_DE216864D2818A0E.mvfrm
Library/Bee/artifacts/mvdfrm/UnityEngine.UnityConnectModule.dll_80DC138EFCBEE222.mvfrm
Library/Bee/artifacts/mvdfrm/UnityEngine.UnityCurlModule.dll_980F7EBE6376D748.mvfrm
Library/Bee/artifacts/mvdfrm/UnityEngine.UnityTestProtocolModule.dll_2444272714FE8FB6.mvfrm
Library/Bee/artifacts/mvdfrm/UnityEngine.UnityWebRequestAssetBundleModule.dll_D566DD79A8DB875F.mvfrm
Library/Bee/artifacts/mvdfrm/UnityEngine.UnityWebRequestAudioModule.dll_0CF1939EF74A48C3.mvfrm
Library/Bee/artifacts/mvdfrm/UnityEngine.UnityWebRequestModule.dll_C13A4F903E329647.mvfrm
Library/Bee/artifacts/mvdfrm/UnityEngine.UnityWebRequestTextureModule.dll_291A9BCCFE4DE4F8.mvfrm
Library/Bee/artifacts/mvdfrm/UnityEngine.UnityWebRequestWWWModule.dll_079D2CBE6C74BAF4.mvfrm
Library/Bee/artifacts/mvdfrm/UnityEngine.VFXModule.dll_2D60410BBF4CD0BF.mvfrm
Library/Bee/artifacts/mvdfrm/UnityEngine.VRModule.dll_F4083841ECCA2D99.mvfrm
Library/Bee/artifacts/mvdfrm/UnityEngine.VehiclesModule.dll_DD132B4FBBE99624.mvfrm
Library/Bee/artifacts/mvdfrm/UnityEngine.VideoModule.dll_0F87E8F7EE191332.mvfrm
Library/Bee/artifacts/mvdfrm/UnityEngine.VirtualTexturingModule.dll_5384EBFD308A790A.mvfrm
Library/Bee/artifacts/mvdfrm/UnityEngine.WindModule.dll_997506F9A47DFBD5.mvfrm
Library/Bee/artifacts/mvdfrm/UnityEngine.XRModule.dll_26C6FB4676047AF7.mvfrm
Library/Bee/artifacts/mvdfrm/UnityEngine.dll_14A3CD8976A03069.mvfrm
Library/Bee/artifacts/mvdfrm/UnityEditor.LinuxStandalone.Extensions.dll_D462EC002CA551DF.mvfrm
Library/Bee/artifacts/mvdfrm/UnityEditor.WebGL.Extensions.dll_2793386A333E52FF.mvfrm